{
  "page": 1,
  "total_results": 19759,
  "total_pages": 988,
  "results": [
    {
      "vote_count": 6755,
      "id": 299536,
      "video": false,
      "vote_average": 8.3,
      "title": "Avengers: Infinity War",
      "popularity": 304.089,
      "poster_path": "/7WsyChQLEftFiDOVTGkv3hFpyyt.jpg",
      "original_language": "en",
      "original_title": "Avengers: Infinity War",
      "genre_ids": [
        12,
        878,
        14,
        28
      ],
      "backdrop_path": "/bOGkgRGdhrBYJSLpXaxhXVstddV.jpg",
      "adult": false,
      "overview": "As the Avengers and their allies have continued to protect the world from threats too large for any one hero to handle, a new danger has emerged from the cosmic shadows: Thanos. A despot of intergalactic infamy, his goal is to collect all six Infinity Stones, artifacts of unimaginable power, and use them to inflict his twisted will on all of reality. Everything the Avengers have fought for has led up to this moment - the fate of Earth and existence itself has never been more uncertain.",
      "release_date": "2018-04-25"
    },
    {
      "vote_count": 3778,
      "id": 383498,
      "video": false,
      "vote_average": 7.6,
      "title": "Deadpool 2",
      "popularity": 224.01,
      "poster_path": "/to0spRl1CMDvyUbOnbb4fTk3VAd.jpg",
      "original_language": "en",
      "original_title": "Deadpool 2",
      "genre_ids": [
        28,
        35,
        878
      ],
      "backdrop_path": "/3P52oz9HPQWxcwHOwxtyrVV1LKi.jpg",
      "adult": false,
      "overview": "Wisecracking mercenary Deadpool battles the evil and powerful Cable and other bad guys to save a boy's life.",
      "release_date": "2018-05-15"
    },
    {
      "vote_count": 847,
      "id": 353081,
      "video": false,
      "vote_average": 7.5,
      "title": "Mission: Impossible - Fallout",
      "popularity": 204.832,
      "poster_path": "/AkJQpZp9WoNdj7pLYSj1L0RcMMN.jpg",
      "original_language": "en",
      "original_title": "Mission: Impossible - Fallout",
      "genre_ids": [
        12,
        28,
        53
      ],
      "backdrop_path": "/5qxePyMYDisLe8rJiBYX8HKEyv2.jpg",
      "adult": false,
      "overview": "When an IMF mission ends badly, the world is faced with dire consequences. As Ethan Hunt takes it upon himself to fulfil his original briefing, the CIA begin to question his loyalty and his motives. The IMF team find themselves in a race against time, hunted by assassins while trying to prevent a global catastrophe.",
      "release_date": "2018-07-25"
    },
    {
      "vote_count": 174,
      "id": 345940,
      "video": false,
      "vote_average": 6.5,
      "title": "The Meg",
      "popularity": 173.242,
      "poster_path": "/xqECHNvzbDL5I3iiOVUkVPJMSbc.jpg",
      "original_language": "en",
      "original_title": "The Meg",
      "genre_ids": [
        28,
        878,
        53,
        27
      ],
      "backdrop_path": "/ibKeXahq4JD63z6uWQphqoJLvNw.jpg",
      "adult": false,
      "overview": "A deep sea submersible pilot revisits his past fears in the Mariana Trench, and accidentally unleashes the seventy foot ancestor of the Great White Shark believed to be extinct.",
      "release_date": "2018-08-09"
    },
    {
      "vote_count": 1306,
      "id": 363088,
      "video": false,
      "vote_average": 7,
      "title": "Ant-Man and the Wasp",
      "popularity": 116.071,
      "poster_path": "/rv1AWImgx386ULjcf62VYaW8zSt.jpg",
      "original_language": "en",
      "original_title": "Ant-Man and the Wasp",
      "genre_ids": [
        28,
        12,
        14,
        35,
        878
      ],
      "backdrop_path": "/6P3c80EOm7BodndGBUAJHHsHKrp.jpg",
      "adult": false,
      "overview": "As Scott Lang awaits expiration of his term of house detention, Hope van Dyne and Dr. Hank Pym involve him in a scheme to rescue Mrs. van Dyne from the micro-universe into which she has fallen, while two groups of schemers converge on them with intentions of stealing Dr. Pym's inventions.",
      "release_date": "2018-07-04"
    },
    {
      "vote_count": 26,
      "id": 493006,
      "video": false,
      "vote_average": 4.7,
      "title": "Detective Conan: Zero the Enforcer",
      "popularity": 98.123,
      "poster_path": "/mMWV5MXn2pkDnnI4vWpy3dRWdNC.jpg",
      "original_language": "ja",
      "original_title": "名探偵コナン ゼロの執行人",
      "genre_ids": [
        16,
        80,
        9648,
        28,
        18
      ],
      "backdrop_path": "/kEqeponciiz6TyuKWtnKSzXzbGa.jpg",
      "adult": false,
      "overview": "There is a sudden explosion at Tokyo Summit's giant Edge of Ocean facility. The shadow of Tōru Amuro, who works for the National Police Agency Security Bureau as Zero, appears at the site. In addition, the \"triple-face\" character is known as Rei Furuya as a detective and Kogorō Mōri's apprentice, and he is also known as Bourbon as a Black Organization member. Kogorō is arrested as a suspect in the case of the explosion. Conan conducts an investigation to prove Kogorō's innocence, but Amuro gets in his way.",
      "release_date": "2018-04-13"
    },
    {
      "vote_count": 2635,
      "id": 351286,
      "video": false,
      "vote_average": 6.6,
      "title": "Jurassic World: Fallen Kingdom",
      "popularity": 89.979,
      "poster_path": "/c9XxwwhPHdaImA2f1WEfEsbhaFB.jpg",
      "original_language": "en",
      "original_title": "Jurassic World: Fallen Kingdom",
      "genre_ids": [
        28,
        12,
        878
      ],
      "backdrop_path": "/3s9O5af2xWKWR5JzP2iJZpZeQQg.jpg",
      "adult": false,
      "overview": "Several years after the demise of Jurassic World, a volcanic eruption threatens the remaining dinosaurs on the island of Isla Nublar. Claire Dearing, the former park manager and founder of the Dinosaur Protection Group, recruits Owen Grady to help prevent the extinction of the dinosaurs once again.",
      "release_date": "2018-06-06"
    },
    {
      "vote_count": 7393,
      "id": 284054,
      "video": false,
      "vote_average": 7.3,
      "title": "Black Panther",
      "popularity": 86.555,
      "poster_path": "/uxzzxijgPIY7slzFvMotPv8wjKA.jpg",
      "original_language": "en",
      "original_title": "Black Panther",
      "genre_ids": [
        28,
        12,
        14,
        878
      ],
      "backdrop_path": "/b6ZJZHUdMEFECvGiDpJjlfUWela.jpg",
      "adult": false,
      "overview": "King T'Challa returns home from America to the reclusive, technologically advanced African nation of Wakanda to serve as his country's new leader. However, T'Challa soon finds that he is challenged for the throne by factions within his own country as well as without. Using powers reserved to Wakandan kings, T'Challa assumes the Black Panther mantel to join with girlfriend Nakia, the queen-mother, his princess-kid sister, members of the Dora Milaje (the Wakandan 'special forces') and an American secret agent, to prevent Wakanda from being dragged into a world war.",
      "release_date": "2018-02-13"
    },
    {
      "vote_count": 1,
      "id": 523873,
      "video": false,
      "vote_average": 0,
      "title": "Kung Fu League",
      "popularity": 84.689,
      "poster_path": "/rW0A73hjzPWVwADlCTLnjLhAFLX.jpg",
      "original_language": "zh",
      "original_title": "功夫联盟",
      "genre_ids": [
        28,
        35
      ],
      "backdrop_path": null,
      "adult": false,
      "overview": "Martial arts comedy following a group of kung fu legends banding together to take on the bad guys. The legends includes VINCENT ZHAO reprising his role as ‘Wong Fei Hung’ with DENNIS TO once again portraying ‘Wing Chun’ master ‘Ip Man’, DANNY CHAN KWOK KWAN as ‘Chen Zhen’ and ANDY ON as master ‘Huo Yuan Jia’.",
      "release_date": "2018-10-19"
    },
    {
      "vote_count": 363,
      "id": 447200,
      "video": false,
      "vote_average": 6.1,
      "title": "Skyscraper",
      "popularity": 80.206,
      "poster_path": "/5LYSsOPzuP13201qSzMjNxi8FxN.jpg",
      "original_language": "en",
      "original_title": "Skyscraper",
      "genre_ids": [
        28,
        53,
        18
      ],
      "backdrop_path": "/oMKFQmoVgB69fyXfSMu0lGlHJP2.jpg",
      "adult": false,
      "overview": "Framed and on the run, a former FBI agent must save his family from a blazing fire in the world's tallest building.",
      "release_date": "2018-07-11"
    },
    {
      "vote_count": 3570,
      "id": 333339,
      "video": false,
      "vote_average": 7.7,
      "title": "Ready Player One",
      "popularity": 73.428,
      "poster_path": "/pU1ULUq8D3iRxl1fdX2lZIzdHuI.jpg",
      "original_language": "en",
      "original_title": "Ready Player One",
      "genre_ids": [
        12,
        878,
        14
      ],
      "backdrop_path": "/5a7lMDn3nAj2ByO0X1fg6BhUphR.jpg",
      "adult": false,
      "overview": "When the creator of a popular video game system dies, a virtual contest is created to compete for his fortune.",
      "release_date": "2018-03-28"
    },
    {
      "vote_count": 7765,
      "id": 284053,
      "video": false,
      "vote_average": 7.5,
      "title": "Thor: Ragnarok",
      "popularity": 69.488,
      "poster_path": "/rzRwTcFvttcN1ZpX2xv4j3tSdJu.jpg",
      "original_language": "en",
      "original_title": "Thor: Ragnarok",
      "genre_ids": [
        28,
        12
      ],
      "backdrop_path": "/kaIfm5ryEOwYg8mLbq8HkPuM1Fo.jpg",
      "adult": false,
      "overview": "Thor is on the other side of the universe and finds himself in a race against time to get back to Asgard to stop Ragnarok, the prophecy of destruction to his homeworld and the end of Asgardian civilization, at the hands of an all-powerful new threat, the ruthless Hela.",
      "release_date": "2017-10-25"
    },
    {
      "vote_count": 14216,
      "id": 118340,
      "video": false,
      "vote_average": 7.9,
      "title": "Guardians of the Galaxy",
      "popularity": 65.745,
      "poster_path": "/y31QB9kn3XSudA15tV7UWQ9XLuW.jpg",
      "original_language": "en",
      "original_title": "Guardians of the Galaxy",
      "genre_ids": [
        28,
        878,
        12
      ],
      "backdrop_path": "/bHarw8xrmQeqf3t8HpuMY7zoK4x.jpg",
      "adult": false,
      "overview": "Light years from Earth, 26 years after being abducted, Peter Quill finds himself the prime target of a manhunt after discovering an orb wanted by Ronan the Accuser.",
      "release_date": "2014-07-30"
    },
    {
      "vote_count": 8,
      "id": 476292,
      "video": false,
      "vote_average": 6.3,
      "title": "Maquia: When the Promised Flower Blooms",
      "popularity": 59.721,
      "poster_path": "/vOrK1n6VgVCFBwgcq5tMoPCqa47.jpg",
      "original_language": "ja",
      "original_title": "さよならの朝に約束の花をかざろう",
      "genre_ids": [
        16
      ],
      "backdrop_path": "/cfbjFQ14hSTgXChBEvaEjFiUaKb.jpg",
      "adult": false,
      "overview": "A story of encounters and partings interwoven between people; this is a human drama with feelings that touch one's heart gradually, which everyone has experienced at least once.",
      "release_date": "2018-02-24"
    },
    {
      "vote_count": 1636,
      "id": 427641,
      "video": false,
      "vote_average": 6.1,
      "title": "Rampage",
      "popularity": 59.302,
      "poster_path": "/3gIO6mCd4Q4PF1tuwcyI3sjFrtI.jpg",
      "original_language": "en",
      "original_title": "Rampage",
      "genre_ids": [
        28,
        12,
        878,
        14
      ],
      "backdrop_path": "/wrqUiMXttHE4UBFMhLHlN601MZh.jpg",
      "adult": false,
      "overview": "Primatologist Davis Okoye shares an unshakable bond with George, the extraordinarily intelligent, silverback gorilla who has been in his care since birth.  But a rogue genetic experiment gone awry mutates this gentle ape into a raging creature of enormous size.  To make matters worse, it’s soon discovered there are other similarly altered animals.  As these newly created alpha predators tear across North America, destroying everything in their path, Okoye teams with a discredited genetic engineer to secure an antidote, fighting his way through an ever-changing battlefield, not only to halt a global catastrophe but to save the fearsome creature that was once his friend.",
      "release_date": "2018-04-12"
    },
    {
      "vote_count": 15781,
      "id": 24428,
      "video": false,
      "vote_average": 7.6,
      "title": "The Avengers",
      "popularity": 59.243,
      "poster_path": "/cezWGskPY5x7GaglTTRN4Fugfb8.jpg",
      "original_language": "en",
      "original_title": "The Avengers",
      "genre_ids": [
        878,
        28,
        12
      ],
      "backdrop_path": "/hbn46fQaRmlpBuUrEiFqv0GDL6Y.jpg",
      "adult": false,
      "overview": "When an unexpected enemy emerges and threatens global safety and security, Nick Fury, director of the international peacekeeping agency known as S.H.I.E.L.D., finds himself in need of a team to pull the world back from the brink of disaster. Spanning the globe, a daring recruitment effort begins!",
      "release_date": "2012-04-25"
    },
    {
      "vote_count": 1,
      "id": 496912,
      "video": false,
      "vote_average": 0,
      "title": "London Love Story 3",
      "popularity": 57.14,
      "poster_path": "/uNQ8G6fvrNLW6HmzaS9uXObUg3P.jpg",
      "original_language": "id",
      "original_title": "London Love Story 3",
      "genre_ids": [
        18,
        10749
      ],
      "backdrop_path": null,
      "adult": false,
      "overview": "After 2 years dating, Dave & Caramel are getting married. But, they had a terrible accident in Bali that causes Caramel can't walk again. How is the end of their love story?",
      "release_date": "2018-02-08"
    },
    {
      "vote_count": 3767,
      "id": 954,
      "video": false,
      "vote_average": 6.8,
      "title": "Mission: Impossible",
      "popularity": 56.733,
      "poster_path": "/vmj2PzTLC6xJvshpq8SlaYE3gbd.jpg",
      "original_language": "en",
      "original_title": "Mission: Impossible",
      "genre_ids": [
        12,
        28,
        53
      ],
      "backdrop_path": "/tjQHn6xW5BiB1RJ3OZIPDzIOSkF.jpg",
      "adult": false,
      "overview": "When Ethan Hunt, the leader of a crack espionage team whose perilous operation has gone awry with no explanation, discovers that a mole has penetrated the CIA, he's surprised to learn that he's the No. 1 suspect. To clear his name, Hunt now must ferret out the real double agent and, in the process, even the score.",
      "release_date": "1996-05-22"
    },
    {
      "vote_count": 4306,
      "id": 177677,
      "video": false,
      "vote_average": 7.1,
      "title": "Mission: Impossible - Rogue Nation",
      "popularity": 54.8,
      "poster_path": "/z2sJd1OvAGZLxgjBdSnQoLCfn3M.jpg",
      "original_language": "en",
      "original_title": "Mission: Impossible - Rogue Nation",
      "genre_ids": [
        28,
        12,
        53
      ],
      "backdrop_path": "/8XeLfNQrDmFQmPTqxapfWUnKiLf.jpg",
      "adult": false,
      "overview": "Ethan and team take on their most impossible mission yet, eradicating the Syndicate - an International rogue organization as highly skilled as they are, committed to destroying the IMF.",
      "release_date": "2015-07-23"
    },
    {
      "vote_count": 3874,
      "id": 156022,
      "video": false,
      "vote_average": 7.1,
      "title": "The Equalizer",
      "popularity": 54.673,
      "poster_path": "/2eQfjqlvPAxd9aLDs8DvsKLnfed.jpg",
      "original_language": "en",
      "original_title": "The Equalizer",
      "genre_ids": [
        53,
        28,
        80
      ],
      "backdrop_path": "/ms9oACSGJRjofNPA6HVtcgE5DiU.jpg",
      "adult": false,
      "overview": "In The Equalizer, Denzel Washington plays McCall, a man who believes he has put his mysterious past behind him and dedicated himself to beginning a new, quiet life. But when McCall meets Teri (Chloë Grace Moretz), a young girl under the control of ultra-violent Russian gangsters, he can’t stand idly by – he has to help her. Armed with hidden skills that allow him to serve vengeance against anyone who would brutalize the helpless, McCall comes out of his self-imposed retirement and finds his desire for justice reawakened. If someone has a problem, if the odds are stacked against them, if they have nowhere else to turn, McCall will help. He is The Equalizer.",
      "release_date": "2014-09-24"
    }
  ]
}